v 1.01 0 -0.1
v 1. 0 0
v 1.01 0 0.1
v 0 1.01 -0.1
v 0 1. 0
v 0 1.01 0.1
v -1.01 0 -0.1
v -1. 0 0
v -1.01 0 0.1
v 0 -1.01 -0.1
v 0 -1. 0
v 0 -1.01 0.1

f 1 5 2
f 2 5 3
f 1 4 5
f 3 5 6
f 4 7 5
f 5 7 8
f 5 8 9
f 5 9 6
f 7 11 8
f 8 11 9
f 7 10 11
f 9 11 12
f 10 1 11
f 11 1 2
f 11 2 3
f 11 3 12