# Produced with JavaView v.1.17 by Konrad Polthier
#     File Format = Wavefront OBJ
#     Geometry    = Kuen Surface
#     Date        = Wed Sep 01 17:45:46 GMT+02:00 1999
#
#     Number of Vertices = 16
#     Number of Elements = 9
#     Additional: Vertex Normals
#
# End of Header
# Vertex List
# Number of Vertices = 16
v  0.0 0.0 0.0
v  0.0 1.0471976 0.0
v  0.0 2.0943952 0.0
v  0.0 3.1415927 0.0
v  1.0471976 0.0 0.0
v  1.0471976 1.0471976 0.0
v  1.0471976 2.0943952 0.0
v  1.0471976 3.1415927 0.0
v  2.0943952 0.0 0.0
v  2.0943952 1.0471976 0.0
v  2.0943952 2.0943952 0.0
v  2.0943952 3.1415927 0.0
v  3.1415927 0.0 0.0
v  3.1415927 1.0471976 0.0
v  3.1415927 2.0943952 0.0
v  3.1415927 3.1415927 0.0
# Vertex Normal List
# Number of Normals = 16
vn 0.0 0.0 1.0
vn 0.0 0.0 1.0
vn 0.0 0.0 1.0
vn 0.0 0.0 1.0
vn 0.0 0.0 1.0
vn 0.0 0.0 1.0
vn 0.0 0.0 1.0
vn 0.0 0.0 1.0
vn 0.0 0.0 1.0
vn 0.0 0.0 1.0
vn 0.0 0.0 1.0
vn 0.0 0.0 1.0
vn 0.0 0.0 1.0
vn 0.0 0.0 1.0
vn 0.0 0.0 1.0
vn 0.0 0.0 1.0
# Face List
# Number of Faces = 9
f  1/1 5/5 6/6 2/2
f  2/2 6/6 7/7 3/3
f  3/3 7/7 8/8 4/4
f  5/5 9/9 10/10 6/6
f  6/6 10/10 11/11 7/7
f  7/7 11/11 12/12 8/8
f  9/9 13/13 14/14 10/10
f  10/10 14/14 15/15 11/11
f  11/11 15/15 16/16 12/12
